{
  "entries": [
    {
      "entry": "./lib/webparts/tilesUi/TilesUiWebPart.js",
      "manifest": "./src/webparts/tilesUi/TilesUiWebPart.manifest.json",
      "outputPath": "./dist/tiles-ui.bundle.js"
    }
  ],
  "externals": {
  },
  "localizedResources": {
    "tilesUiStrings": "webparts/tilesUi/loc/{locale}.js"
  }
}
